128
1 120
1 110
1 109
1 108
1 103
1 102
1 98
1 90
1 80
1 79
1 72
1 67
1 57
1 55
1 44
1 31
2 127
2 126
2 123
2 116
2 115
2 113
2 111
2 107
2 96
2 94
2 93
2 92
2 84
2 82
2 75
2 69
2 68
2 66
2 61
2 58
2 53
2 52
2 45
2 41
2 38
2 30
2 28
2 25
2 24
2 20
2 10
3 87
3 81
3 48
3 9
3 5
4 124
4 104
4 77
4 54
4 49
4 40
4 29
4 26
4 21
4 18
4 15
4 9
5 87
5 48
5 32
5 3
6 127
6 122
6 111
6 106
6 96
6 95
6 89
6 84
6 71
6 70
6 60
6 56
6 23
6 13
7 128
7 126
7 123
7 115
7 101
7 99
7 92
7 91
7 88
7 83
7 73
7 68
7 66
7 62
7 52
7 43
7 28
7 19
7 14
7 8
8 128
8 126
8 125
8 123
8 115
8 114
8 110
8 101
8 100
8 99
8 92
8 91
8 88
8 78
8 76
8 74
8 73
8 68
8 66
8 62
8 52
8 43
8 39
8 28
8 27
8 19
8 14
8 7
9 124
9 104
9 49
9 40
9 29
9 26
9 21
9 18
9 4
9 3
10 127
10 126
10 123
10 118
10 116
10 115
10 113
10 111
10 107
10 96
10 94
10 93
10 92
10 86
10 84
10 82
10 75
10 69
10 66
10 61
10 58
10 53
10 52
10 46
10 45
10 41
10 38
10 36
10 30
10 28
10 25
10 24
10 20
10 2
11 85
11 81
11 63
11 59
11 50
11 42
11 17
12 102
12 80
12 47
12 37
12 33
12 32
12 31
12 16
13 127
13 122
13 111
13 106
13 96
13 95
13 93
13 89
13 84
13 75
13 71
13 70
13 60
13 56
13 23
13 6
14 101
14 100
14 99
14 91
14 73
14 62
14 52
14 43
14 28
14 19
14 8
14 7
15 124
15 77
15 54
15 40
15 29
15 26
15 21
15 18
15 4
16 117
16 102
16 87
16 74
16 35
16 33
16 32
16 12
17 85
17 81
17 63
17 59
17 50
17 42
17 11
18 124
18 104
18 77
18 49
18 40
18 26
18 21
18 15
18 9
18 4
19 128
19 125
19 114
19 105
19 101
19 100
19 97
19 91
19 88
19 78
19 74
19 73
19 65
19 62
19 43
19 39
19 14
19 8
19 7
20 127
20 126
20 123
20 118
20 116
20 115
20 113
20 111
20 94
20 93
20 92
20 86
20 83
20 82
20 75
20 69
20 68
20 66
20 61
20 58
20 53
20 52
20 46
20 45
20 41
20 38
20 36
20 30
20 28
20 25
20 24
20 22
20 10
20 2
21 124
21 104
21 77
21 49
21 40
21 29
21 26
21 18
21 15
21 9
21 4
22 118
22 116
22 94
22 86
22 83
22 82
22 61
22 58
22 53
22 46
22 38
22 36
22 30
22 25
22 24
22 20
23 122
23 106
23 96
23 95
23 89
23 71
23 70
23 67
23 64
23 60
23 56
23 13
23 6
24 127
24 126
24 123
24 118
24 116
24 115
24 113
24 111
24 94
24 93
24 86
24 84
24 83
24 82
24 75
24 69
24 66
24 61
24 58
24 53
24 52
24 46
24 45
24 41
24 38
24 36
24 30
24 25
24 22
24 20
24 10
24 2
25 126
25 123
25 118
25 116
25 115
25 113
25 94
25 93
25 86
25 83
25 82
25 69
25 66
25 61
25 58
25 53
25 52
25 46
25 45
25 41
25 38
25 36
25 30
25 24
25 22
25 20
25 10
25 2
26 124
26 104
26 77
26 54
26 49
26 40
26 29
26 21
26 18
26 15
26 9
26 4
27 128
27 122
27 114
27 110
27 109
27 108
27 102
27 100
27 92
27 91
27 90
27 88
27 80
27 79
27 76
27 73
27 68
27 64
27 62
27 52
27 43
27 39
27 28
27 8
28 128
28 126
28 123
28 115
28 113
28 107
28 100
28 99
28 94
28 92
28 91
28 88
28 83
28 76
28 75
28 73
28 69
28 68
28 66
28 62
28 58
28 53
28 52
28 45
28 43
28 30
28 27
28 20
28 14
28 10
28 8
28 7
28 2
29 124
29 112
29 77
29 54
29 40
29 26
29 21
29 15
29 9
29 4
30 127
30 126
30 123
30 118
30 116
30 115
30 113
30 111
30 94
30 93
30 92
30 86
30 84
30 83
30 82
30 75
30 69
30 66
30 61
30 58
30 53
30 52
30 46
30 45
30 41
30 38
30 36
30 28
30 25
30 24
30 22
30 20
30 10
30 2
31 120
31 119
31 109
31 108
31 103
31 102
31 98
31 90
31 80
31 72
31 57
31 55
31 47
31 44
31 12
31 1
32 87
32 48
32 47
32 37
32 33
32 16
32 12
32 5
33 117
33 102
33 90
33 87
33 80
33 74
33 37
33 35
33 32
33 16
33 12
34 121
34 65
34 51
35 87
35 33
35 16
36 118
36 116
36 113
36 94
36 86
36 82
36 69
36 61
36 58
36 53
36 46
36 41
36 38
36 30
36 25
36 24
36 22
36 20
36 10
37 47
37 33
37 32
37 12
38 127
38 126
38 123
38 118
38 116
38 115
38 113
38 111
38 94
38 93
38 86
38 83
38 82
38 75
38 69
38 66
38 61
38 58
38 53
38 46
38 45
38 41
38 36
38 30
38 25
38 24
38 22
38 20
38 10
38 2
39 128
39 125
39 117
39 114
39 110
39 105
39 101
39 100
39 97
39 91
39 90
39 79
39 78
39 74
39 73
39 65
39 62
39 43
39 27
39 19
39 8
40 124
40 104
40 77
40 54
40 49
40 29
40 26
40 21
40 18
40 15
40 9
40 4
41 127
41 126
41 123
41 118
41 116
41 115
41 113
41 111
41 96
41 94
41 93
41 86
41 84
41 82
41 75
41 69
41 66
41 61
41 58
41 53
41 46
41 45
41 38
41 36
41 30
41 25
41 24
41 20
41 10
41 2
42 85
42 81
42 63
42 59
42 50
42 17
42 11
43 128
43 125
43 117
43 115
43 114
43 110
43 105
43 101
43 100
43 99
43 92
43 91
43 88
43 79
43 78
43 76
43 74
43 73
43 68
43 66
43 62
43 52
43 39
43 28
43 27
43 19
43 14
43 8
43 7
44 120
44 119
44 109
44 103
44 98
44 80
44 72
44 67
44 57
44 55
44 31
44 1
45 127
45 126
45 123
45 116
45 115
45 113
45 111
45 107
45 99
45 94
45 93
45 92
45 91
45 88
45 83
45 82
45 76
45 75
45 69
45 68
45 66
45 62
45 61
45 58
45 53
45 52
45 46
45 41
45 38
45 30
45 28
45 25
45 24
45 20
45 10
45 2
46 126
46 123
46 118
46 116
46 115
46 113
46 94
46 86
46 83
46 82
46 69
46 66
46 61
46 58
46 53
46 52
46 45
46 41
46 38
46 36
46 30
46 25
46 24
46 22
46 20
46 10
47 120
47 112
47 37
47 32
47 31
47 12
48 87
48 32
48 5
48 3
49 124
49 104
49 81
49 59
49 40
49 26
49 21
49 18
49 9
49 4
50 85
50 81
50 63
50 59
50 42
50 17
50 11
51 125
51 121
51 105
51 97
51 78
51 65
51 34
52 128
52 126
52 123
52 116
52 115
52 113
52 107
52 100
52 99
52 94
52 92
52 91
52 88
52 83
52 76
52 75
52 69
52 68
52 66
52 62
52 58
52 53
52 46
52 45
52 43
52 30
52 28
52 27
52 25
52 24
52 20
52 14
52 10
52 8
52 7
52 2
53 126
53 123
53 118
53 116
53 115
53 113
53 111
53 94
53 93
53 86
53 83
53 82
53 75
53 69
53 66
53 61
53 58
53 52
53 46
53 45
53 41
53 38
53 36
53 30
53 28
53 25
53 24
53 22
53 20
53 10
53 2
54 112
54 77
54 40
54 29
54 26
54 15
54 4
55 122
55 120
55 119
55 110
55 109
55 108
55 103
55 98
55 80
55 72
55 70
55 67
55 64
55 57
55 44
55 31
55 1
56 106
56 95
56 89
56 71
56 60
56 23
56 13
56 6
57 122
57 120
57 119
57 109
57 108
57 103
57 98
57 72
57 70
57 67
57 64
57 55
57 44
57 31
57 1
58 126
58 123
58 118
58 116
58 115
58 113
58 94
58 93
58 86
58 83
58 82
58 69
58 66
58 61
58 53
58 52
58 46
58 45
58 41
58 38
58 36
58 30
58 28
58 25
58 24
58 22
58 20
58 10
58 2
59 104
59 85
59 81
59 63
59 50
59 49
59 42
59 17
59 11
60 106
60 96
60 95
60 89
60 84
60 71
60 70
60 56
60 23
60 13
60 6
61 126
61 118
61 116
61 113
61 94
61 93
61 86
61 83
61 82
61 69
61 58
61 53
61 46
61 45
61 41
61 38
61 36
61 30
61 25
61 24
61 22
61 20
61 10
61 2
62 128
62 126
62 123
62 115
62 114
62 107
62 101
62 100
62 99
62 92
62 91
62 88
62 83
62 76
62 73
62 69
62 68
62 66
62 52
62 45
62 43
62 39
62 28
62 27
62 19
62 14
62 8
62 7
63 85
63 81
63 59
63 50
63 42
63 17
63 11
64 128
64 122
64 110
64 108
64 103
64 89
64 88
64 76
64 71
64 70
64 67
64 57
64 55
64 27
64 23
65 125
65 121
65 117
65 114
65 105
65 101
65 97
65 78
65 74
65 51
65 39
65 34
65 19
66 126
66 123
66 116
66 115
66 113
66 107
66 99
66 94
66 93
66 92
66 91
66 88
66 83
66 82
66 76
66 75
66 69
66 68
66 62
66 58
66 53
66 52
66 46
66 45
66 43
66 41
66 38
66 30
66 28
66 25
66 24
66 20
66 10
66 8
66 7
66 2
67 122
67 108
67 103
67 98
67 70
67 64
67 57
67 55
67 44
67 23
67 1
68 128
68 127
68 126
68 123
68 115
68 113
68 110
68 107
68 100
68 99
68 94
68 92
68 91
68 88
68 83
68 76
68 75
68 73
68 69
68 66
68 62
68 52
68 45
68 43
68 28
68 27
68 20
68 8
68 7
68 2
69 126
69 123
69 118
69 116
69 115
69 113
69 107
69 99
69 94
69 93
69 92
69 91
69 86
69 83
69 82
69 75
69 68
69 66
69 62
69 61
69 58
69 53
69 52
69 46
69 45
69 41
69 38
69 36
69 30
69 28
69 25
69 24
69 20
69 10
69 2
70 122
70 96
70 89
70 71
70 67
70 64
70 60
70 57
70 55
70 23
70 13
70 6
71 127
71 122
71 111
71 107
71 106
71 96
71 95
71 89
71 84
71 75
71 70
71 64
71 60
71 56
71 23
71 13
71 6
72 120
72 119
72 103
72 98
72 57
72 55
72 44
72 31
72 1
73 128
73 125
73 114
73 105
73 101
73 100
73 97
73 91
73 88
73 78
73 76
73 74
73 68
73 62
73 43
73 39
73 28
73 27
73 19
73 14
73 8
73 7
74 128
74 125
74 117
74 114
74 110
74 109
74 108
74 105
74 102
74 101
74 100
74 97
74 90
74 80
74 79
74 78
74 73
74 65
74 43
74 39
74 33
74 19
74 16
74 8
75 127
75 126
75 123
75 116
75 115
75 113
75 111
75 107
75 96
75 93
75 92
75 84
75 71
75 69
75 68
75 66
75 53
75 52
75 45
75 41
75 38
75 30
75 28
75 24
75 20
75 13
75 10
75 2
76 128
76 126
76 123
76 122
76 115
76 114
76 110
76 108
76 107
76 100
76 99
76 92
76 91
76 90
76 88
76 79
76 73
76 68
76 66
76 64
76 62
76 52
76 45
76 43
76 28
76 27
76 8
77 124
77 54
77 40
77 29
77 26
77 21
77 18
77 15
77 4
78 128
78 125
78 117
78 114
78 110
78 105
78 101
78 100
78 97
78 79
78 74
78 73
78 65
78 51
78 43
78 39
78 19
78 8
79 128
79 125
79 117
79 114
79 110
79 109
79 108
79 105
79 102
79 100
79 98
79 97
79 90
79 88
79 80
79 78
79 76
79 74
79 43
79 39
79 27
79 1
80 117
80 110
80 109
80 108
80 105
80 103
80 102
80 98
80 90
80 79
80 74
80 55
80 44
80 33
80 31
80 27
80 12
80 1
81 85
81 63
81 59
81 50
81 49
81 42
81 17
81 11
81 3
82 126
82 118
82 116
82 115
82 113
82 94
82 93
82 86
82 83
82 69
82 66
82 61
82 58
82 53
82 46
82 45
82 41
82 38
82 36
82 30
82 25
82 24
82 22
82 20
82 10
82 2
83 126
83 123
83 118
83 116
83 115
83 113
83 99
83 94
83 92
83 91
83 86
83 82
83 69
83 68
83 66
83 62
83 61
83 58
83 53
83 52
83 46
83 45
83 38
83 30
83 28
83 25
83 24
83 22
83 20
83 7
84 127
84 113
84 111
84 107
84 96
84 93
84 89
84 75
84 71
84 60
84 41
84 30
84 24
84 13
84 10
84 6
84 2
85 81
85 63
85 59
85 50
85 42
85 17
85 11
86 118
86 116
86 113
86 94
86 93
86 83
86 82
86 69
86 61
86 58
86 53
86 46
86 41
86 38
86 36
86 30
86 25
86 24
86 22
86 20
86 10
87 48
87 35
87 33
87 32
87 16
87 5
87 3
88 128
88 126
88 123
88 115
88 114
88 110
88 108
88 107
88 100
88 99
88 92
88 91
88 90
88 79
88 76
88 73
88 68
88 66
88 64
88 62
88 52
88 45
88 43
88 28
88 27
88 19
88 8
88 7
89 127
89 122
89 106
89 96
89 95
89 84
89 71
89 70
89 64
89 60
89 56
89 23
89 13
89 6
90 128
90 117
90 114
90 110
90 109
90 108
90 105
90 102
90 98
90 97
90 88
90 80
90 79
90 76
90 74
90 39
90 33
90 31
90 27
90 1
91 128
91 126
91 123
91 115
91 114
91 107
91 101
91 100
91 99
91 92
91 88
91 83
91 76
91 73
91 69
91 68
91 66
91 62
91 52
91 45
91 43
91 39
91 28
91 27
91 19
91 14
91 8
91 7
92 128
92 127
92 126
92 123
92 115
92 113
92 107
92 100
92 99
92 94
92 91
92 88
92 83
92 76
92 75
92 69
92 68
92 66
92 62
92 52
92 45
92 43
92 30
92 28
92 27
92 20
92 10
92 8
92 7
92 2
93 127
93 126
93 123
93 116
93 115
93 113
93 111
93 107
93 96
93 94
93 86
93 84
93 82
93 75
93 69
93 66
93 61
93 58
93 53
93 45
93 41
93 38
93 30
93 25
93 24
93 20
93 13
93 10
93 2
94 126
94 123
94 118
94 116
94 115
94 113
94 99
94 93
94 92
94 86
94 83
94 82
94 69
94 68
94 66
94 61
94 58
94 53
94 52
94 46
94 45
94 41
94 38
94 36
94 30
94 28
94 25
94 24
94 22
94 20
94 10
94 2
95 106
95 89
95 71
95 60
95 56
95 23
95 13
95 6
96 127
96 122
96 113
96 111
96 107
96 93
96 89
96 84
96 75
96 71
96 70
96 60
96 41
96 23
96 13
96 10
96 6
96 2
97 125
97 117
97 114
97 105
97 102
97 101
97 100
97 90
97 79
97 78
97 74
97 73
97 65
97 51
97 39
97 19
98 120
98 119
98 110
98 109
98 108
98 103
98 102
98 90
98 80
98 79
98 72
98 67
98 57
98 55
98 44
98 31
98 1
99 128
99 126
99 123
99 115
99 107
99 100
99 94
99 92
99 91
99 88
99 83
99 76
99 69
99 68
99 66
99 62
99 52
99 45
99 43
99 28
99 14
99 8
99 7
100 128
100 125
100 117
100 114
100 105
100 101
100 99
100 97
100 92
100 91
100 88
100 79
100 78
100 76
100 74
100 73
100 68
100 62
100 52
100 43
100 39
100 28
100 27
100 19
100 14
100 8
101 128
101 125
101 114
101 105
101 100
101 97
101 91
101 78
101 74
101 73
101 65
101 62
101 43
101 39
101 19
101 14
101 8
101 7
102 128
102 117
102 114
102 110
102 109
102 108
102 105
102 98
102 97
102 90
102 80
102 79
102 74
102 33
102 31
102 27
102 16
102 12
102 1
103 120
103 119
103 109
103 108
103 98
103 80
103 72
103 67
103 64
103 57
103 55
103 44
103 31
103 1
104 124
104 59
104 49
104 40
104 26
104 21
104 18
104 9
104 4
105 125
105 117
105 114
105 110
105 102
105 101
105 100
105 97
105 90
105 80
105 79
105 78
105 74
105 73
105 65
105 51
105 43
105 39
105 19
106 95
106 89
106 71
106 60
106 56
106 23
106 13
106 6
107 127
107 126
107 123
107 115
107 113
107 111
107 99
107 96
107 93
107 92
107 91
107 88
107 84
107 76
107 75
107 71
107 69
107 68
107 66
107 62
107 52
107 45
107 28
107 10
107 2
108 128
108 114
108 110
108 109
108 103
108 102
108 98
108 90
108 88
108 80
108 79
108 76
108 74
108 67
108 64
108 57
108 55
108 31
108 27
108 1
109 110
109 108
109 103
109 102
109 98
109 90
109 80
109 79
109 74
109 57
109 55
109 44
109 31
109 27
109 1
110 128
110 117
110 114
110 109
110 108
110 105
110 102
110 98
110 90
110 88
110 80
110 79
110 78
110 76
110 74
110 68
110 64
110 55
110 43
110 39
110 27
110 8
110 1
111 127
111 126
111 123
111 116
111 113
111 107
111 96
111 93
111 84
111 75
111 71
111 53
111 45
111 41
111 38
111 30
111 24
111 20
111 13
111 10
111 6
111 2
112 54
112 47
112 29
113 127
113 126
113 123
113 118
113 116
113 115
113 111
113 107
113 96
113 94
113 93
113 92
113 86
113 84
113 83
113 82
113 75
113 69
113 68
113 66
113 61
113 58
113 53
113 52
113 46
113 45
113 41
113 38
113 36
113 30
113 28
113 25
113 24
113 20
113 10
113 2
114 128
114 125
114 117
114 110
114 108
114 105
114 102
114 101
114 100
114 97
114 91
114 90
114 88
114 79
114 78
114 76
114 74
114 73
114 65
114 62
114 43
114 39
114 27
114 19
114 8
115 127
115 126
115 123
115 116
115 113
115 107
115 99
115 94
115 93
115 92
115 91
115 88
115 83
115 82
115 76
115 75
115 69
115 68
115 66
115 62
115 58
115 53
115 52
115 46
115 45
115 43
115 41
115 38
115 30
115 28
115 25
115 24
115 20
115 10
115 8
115 7
115 2
116 126
116 123
116 118
116 115
116 113
116 111
116 94
116 93
116 86
116 83
116 82
116 75
116 69
116 66
116 61
116 58
116 53
116 52
116 46
116 45
116 41
116 38
116 36
116 30
116 25
116 24
116 22
116 20
116 10
116 2
117 125
117 114
117 110
117 105
117 102
117 100
117 97
117 90
117 80
117 79
117 78
117 74
117 65
117 43
117 39
117 33
117 16
118 116
118 113
118 94
118 86
118 83
118 82
118 69
118 61
118 58
118 53
118 46
118 41
118 38
118 36
118 30
118 25
118 24
118 22
118 20
118 10
119 120
119 103
119 98
119 72
119 57
119 55
119 44
119 31
120 119
120 103
120 98
120 72
120 57
120 55
120 47
120 44
120 31
120 1
121 65
121 51
121 34
122 96
122 89
122 76
122 71
122 70
122 67
122 64
122 57
122 55
122 27
122 23
122 13
122 6
123 128
123 127
123 126
123 116
123 115
123 113
123 111
123 107
123 99
123 94
123 93
123 92
123 91
123 88
123 83
123 76
123 75
123 69
123 68
123 66
123 62
123 58
123 53
123 52
123 46
123 45
123 41
123 38
123 30
123 28
123 25
123 24
123 20
123 10
123 8
123 7
123 2
124 104
124 77
124 49
124 40
124 29
124 26
124 21
124 18
124 15
124 9
124 4
125 117
125 114
125 105
125 101
125 100
125 97
125 79
125 78
125 74
125 73
125 65
125 51
125 43
125 39
125 19
125 8
126 127
126 123
126 116
126 115
126 113
126 111
126 107
126 99
126 94
126 93
126 92
126 91
126 88
126 83
126 82
126 76
126 75
126 69
126 68
126 66
126 62
126 61
126 58
126 53
126 52
126 46
126 45
126 41
126 38
126 30
126 28
126 25
126 24
126 20
126 10
126 8
126 7
126 2
127 126
127 123
127 115
127 113
127 111
127 107
127 96
127 93
127 92
127 89
127 84
127 75
127 71
127 68
127 45
127 41
127 38
127 30
127 24
127 20
127 13
127 10
127 6
127 2
128 123
128 114
128 110
128 108
128 102
128 101
128 100
128 99
128 92
128 91
128 90
128 88
128 79
128 78
128 76
128 74
128 73
128 68
128 64
128 62
128 52
128 43
128 39
128 28
128 27
128 19
128 8
128 7
