50
28 43
35 36
7 34
17 46
35 33
27 45
34 19
20 3
23 17
2 18
34 30
6 35
16 21
26 42
16 31
2 3
40 43
31 34
49 36
33 36
37 49
34 22
15 37
24 2
20 1
4 45
17 11
21 24
37 19
6 8
9 17
10 24
48 43
23 30
43 44
9 13
40 46
24 35
18 31
15 17
5 25
11 35
38 40
33 6
15 33
47 15
38 18
37 24
30 40
18 43
37 22
26 6
24 47
47 26
1 31
38 4
44 33
32 0
8 22
43 22
38 7
9 20
2 29
45 15
24 22
41 27
40 9
8 30
30 22
9 42
19 47
23 0
26 46
45 34
3 8
38 31
13 44
21 10
11 5
8 25
24 9
30 25
35 13
12 24
1 27
42 15
25 3
36 47
24 1
25 7
9 0
42 6
27 32
11 7
8 38
0 45
0 10
19 6
8 9
21 4
45 33
1 12
25 21
34 25
10 4
35 40
40 48
28 15
11 3
49 46
41 37
16 15
8 21
30 41
9 49
5 28
31 9
41 19
28 38
41 33
13 49
9 32
35 42
31 19
15 29
29 33
24 18
14 22
22 0
19 11
7 20
22 32
5 29
10 7
45 44
36 24
48 8
28 3
10 49
28 19
39 38
26 9
10 13
16 38
48 32
47 4
38 36
16 24
38 17
11 37
32 1
22 1
36 48
5 19
19 46
33 9
16 34
18 39
37 0
41 15
15 43
19 18
18 11
29 31
33 30
39 45
45 42
36 42
12 25
17 48
37 39
39 42
30 26
47 9
2 11
0 34
23 34
7 1
16 2
39 1
13 19
33 26
8 14
1 26
26 19
40 44
37 36
26 24
18 15
1 5
27 10
48 9
36 13
7 18
41 49
24 7
20 43
31 27
41 13
5 4
22 9
14 9
44 36
18 34
4 3
8 40
47 14
41 6
13 11
19 9
14 17
6 23
23 8
41 40
46 4
26 27
32 12
46 47
43 14
33 40
26 41
8 20
31 3
30 19
9 6
3 22
23 31
31 48
8 34
48 35
27 24
38 21
5 6
8 10
38 41
28 49
14 19
31 49
5 2
37 33
17 4
11 30
1 8
15 19
13 2
13 39
28 16
7 42
26 14
5 45
15 7
47 48
18 25
27 25
23 12
47 17
21 12
26 0
20 28
8 27
15 46
3 17
43 24
16 32
4 2
21 0
36 19
45 48
10 2
46 30
5 40
23 4
3 29
13 45
41 47
42 8
41 7
11 6
7 35
28 4
36 34
18 9
3 45
26 15
13 14
13 42
39 36
32 25
23 33
29 36
39 8
19 20
33 5
5 7
43 21
33 13
4 13
13 47
46 6
42 16
